Load Ipomopsis GC data
…
Match metadata to filenames

#load field metadata
metadata <- list.files("data/volatiles", pattern = "Ipomopsis long-term volatiles - 20", full.names=T) %>% 
  map_dfr(~read_tsv(.x, show_col_types = F) %>% 
            mutate(across(any_of(c("pump_id", "plant", "vial")), as.character)), .id="metafile") %>% 
  mutate(year = year(date))

#load hand-split file names
filemeta <- read_csv("data/volatiles/Ipomopsis GCMS files - ipo_meta_split.csv") %>% 
  mutate(type = fct_recode(type, floral="sample"))
filemeta %>% count(site, date, time)

# A tibble: 81 × 4
   site  date       time      n
   <chr> <date>     <chr> <int>
 1 I     2017-07-21 D         3
 2 I     2017-07-24 D        28
 3 I     2017-07-27 D         5
 4 I     2017-08-01 N        24
 5 I     2017-08-10 N         2
 6 I     2018-07-19 N        13
 7 I     2018-07-20 D         9
 8 I     2018-07-26 D         4
 9 I     2018-07-30 N         1
10 I     2019-08-02 D        25
# ℹ 71 more rows
…
